{
  "APP_MODE": "@appMode@",
  "APP_MODE_URL": {
    "admin": "@frontendUrlAdmin@",
    "user": "@frontendUrlUser@"
  },
  "serverUrl": "@backendUrl@",
  "DASHBOARD": {
    "HIDE_TASKS_COUNT": false,
    "HIDE_EXPORT_BUTTON": false
  },
  "QUERY_PRESET_PANEL_VISIBLE": true,
  "SEARCH_ROWS": 30,
  "SEARCH_OPERATION_TYPE": true,
  "BULK_SELECTION_LIMIT": 30,
  "CHECK_SOURCESYSTEM_WEIGHT_UNIQUE": false,
  "MAX_TABS": 20,
  "MERGE_RECORD_DISPLAY_COUNT": 2,
  "DECIMAL_PRECISION": 2,
  "CDN_VENDOR_LIBS": [],
  "PLATFORM_EXTERNAL_CLASSES": [],
  "FIRST_RELATION_SEARCH_RECORDS_COUNT": 5,
  "TIMEINTERVAL_ENABLED": true,
  "TASKS_POLL_INTERVAL": 300,
  "LOCALE": "ru",
  "AJAX_REQUEST_TIMEOUT": null,
  "ORIGIN_CAROUSEL_MAXCOUNT": 100,
  "ORIGIN_CAROUSEL_DISPLAYCOUNT": 2
}